{
	"Status": "200 OK",
	"StatusCode": 200,
	"Body": "\u003c?xml version=\"1.0\" encoding=\"utf-8\"?\u003e\n\u003cService_ViewCancelPolicy\u003e\n  \u003cViewCancelPolicy_Response\u003e\n    \u003cHotelId\u003eWSMA0511000155\u003c/HotelId\u003e\n    \u003cHotelName\u003eDusit Thani Bangkok\u003c/HotelName\u003e\n    \u003cPolicies\u003e\n      \u003cPolicy FromDate=\"2013-11-01\" ToDate=\"2017-12-30\"\u003e\n        \u003cRoomCatgCode Name=\"SUPERIOR\" BFType=\"RO\"\u003eWSMA05110035\u003c/RoomCatgCode\u003e\n        \u003cExCancelDays\u003e15\u003c/ExCancelDays\u003e\n        \u003cChargeType\u003eAmount\u003c/ChargeType\u003e\n        \u003cCurrency\u003eUSD\u003c/Currency\u003e\n        \u003cChargeRate\u003e4.84\u003c/ChargeRate\u003e\n        \u003cDescription\u003e\u003c/Description\u003e\n      \u003c/Policy\u003e\n      \u003cPolicy FromDate=\"2015-06-02\" ToDate=\"2017-12-30\"\u003e\n        \u003cRoomCatgCode Name=\"SUPERIOR\"\u003eWSMA05110035\u003c/RoomCatgCode\u003e\n        \u003cExCancelDays\u003e3\u003c/ExCancelDays\u003e\n        \u003cChargeType\u003eAmount\u003c/ChargeType\u003e\n        \u003cCurrency\u003eUSD\u003c/Currency\u003e\n        \u003cChargeRate\u003e3.23\u003c/ChargeRate\u003e\n        \u003cDescription\u003e\u003c/Description\u003e\n      \u003c/Policy\u003e\n      \u003cPolicy FromDate=\"2013-10-30\" ToDate=\"2017-12-30\"\u003e\n        \u003cRoomCatgCode Name=\"DULUXE (TOWER WING)\"\u003eWSMA08061464\u003c/RoomCatgCode\u003e\n        \u003cExCancelDays\u003e30\u003c/ExCancelDays\u003e\n        \u003cChargeType\u003ePercent\u003c/ChargeType\u003e\n        \u003cChargeRate\u003e50.00\u003c/ChargeRate\u003e\n        \u003cDescription\u003e\u003c/Description\u003e\n      \u003c/Policy\u003e\n    \u003c/Policies\u003e\n  \u003c/ViewCancelPolicy_Response\u003e\n\u003c/Service_ViewCancelPolicy\u003e",
	"Header": {
		"Content-Type": [
			"text/html"
		],
		"Date": [
			"Tue, 21 Jun 2016 12:01:41 GMT"
		],
		"Server": [
			"Apache/2.2.27 (Unix) mod_ssl/2.2.27 OpenSSL/1.0.1e-fips mod_bwlimited/1.4 PHP/5.3.28"
		],
		"Vary": [
			"Accept-Encoding,User-Agent"
		],
		"X-Powered-By": [
			"PHP/5.3.28"
		]
	},
	"Request": {
		"Header": {
			"Accept": [
				"application/xml"
			],
			"Content-Type": [
				"application/x-www-form-urlencoded"
			]
		},
		"Body": "requestXML=%3CService_ViewCancelPolicy%3E%3CAgentLogin%3E%3CAgentId%3EZMGH%3C%2FAgentId%3E%3CLoginName%3Emghz010%3C%2FLoginName%3E%3CPassword%3Emghz010%3C%2FPassword%3E%3C%2FAgentLogin%3E%3CViewCancelPolicy_Request%3E%3CPaxPassport%3EMA05110059%3C%2FPaxPassport%3E%3CHotelId%3EWSMA0511000155%3C%2FHotelId%3E%3CInternalCode%3ECL004%3C%2FInternalCode%3E%3CdtCheckIn%3E2016-08-31%3C%2FdtCheckIn%3E%3CdtCheckOut%3E2016-09-05%3C%2FdtCheckOut%3E%3CRoomInfo+SeqNo%3D%221%22+RoomType%3D%22%22+RQBedChild%3D%22N%22%3E%3CAdultNum%3E1%3C%2FAdultNum%3E%3CChildAges%3E%3CChildAge%3E4%3C%2FChildAge%3E%3C%2FChildAges%3E%3C%2FRoomInfo%3E%3CflagAvail%3ETrue%3C%2FflagAvail%3E%3CCancelPolicyID%3E%3C%2FCancelPolicyID%3E%3C%2FViewCancelPolicy_Request%3E%3C%2FService_ViewCancelPolicy%3E"
	}
}